module gitlab.com/himynameistimli/nanit

go 1.14

require (
	github.com/eclipse/paho.mqtt.golang v1.3.0
	github.com/golang/protobuf v1.4.3
	github.com/joho/godotenv v1.3.0
	github.com/notedit/rtmp v0.0.2
	github.com/rs/zerolog v1.20.0
	github.com/sacOO7/go-logger v0.0.0-20180719173527-9ac9add5a50d // indirect
	github.com/sacOO7/gowebsocket v0.0.0-20201031204121-1620b8bfa516
	github.com/stretchr/testify v1.6.1
	github.com/tevino/abool v1.2.0
	github.com/yutopp/go-amf0 v0.0.0-20180803120851-48851794bb1f // indirect
	github.com/yutopp/go-flv v0.2.0
	google.golang.org/protobuf v1.25.0
)
